Descriptive Analysis & Preliminary Results
…
# A tibble: 2,740 × 13
# Groups:   fips [2,740]
   fips  r.squared adj.r.squared  sigma statistic     p.value    df logLik   AIC
   <chr>     <dbl>         <dbl>  <dbl>     <dbl>       <dbl> <dbl>  <dbl> <dbl>
 1 01001     0.720        0.706   7083.     51.5      5.98e-7     1  -225.  456.
 2 01003     0.724        0.711  48104.     52.6      5.16e-7     1  -267.  541.
 3 01005     0.664        0.647   5299.     39.5      3.89e-6     1  -219.  444.
 4 01007     0.389        0.358   4811.     12.7      1.94e-3     1  -217.  439.
 5 01009     0.850        0.842   6622.    113.       1.12e-9     1  -224.  453.
 6 01011     0.530        0.507   1266.     22.6      1.22e-4     1  -187.  381.
 7 01013     0.132        0.0889  5898.      3.05     9.62e-2     1  -221.  448.
 8 01015     0.850        0.842  12374.    113.       1.11e-9     1  -237.  481.
 9 01017     0.574        0.553   2750.     27.0      4.40e-5     1  -204.  415.
10 01019     0.710        0.695   4957.     48.9      8.68e-7     1  -217.  441.
# ℹ 2,730 more rows
# ℹ 4 more variables: BIC <dbl>, deviance <dbl>, df.residual <int>, nobs <int>
…
